  ! " # $ % & ' ( ) * + , - . /
0 1 2 3 4 5 6 7 8 9 : ; < = > ?
@ A B C D E F G H I J K L M N O
P Q R S T U V W X Y Z [ \ ] ^ _
` a b c d e f g h i j k l m n 0
p q r s t u v w x y z { | } ~  

- 0 0 0 0
x 255 255 255 255

------ --xx-- -x-x-- -x-x-- -xxxx- x---x- -x---- ---x-- --x--- -x---- --x--- ------ ------ ------ ------ ----x-
------ --xx-- -x-x-- xxxxx- x-x--- ---x-- x-x--- --x--- -x---- --x--- x-x-x- --x--- ------ ------ ------ ---x--
------ --xx-- ------ -x-x-- -xxx-- --x--- -xx-x- ------ -x---- --x--- -xxx-- -xxx-- ------ -xxx-- ------ --x---
------ ------ ------ xxxxx- --x-x- -x---- x--x-- ------ -x---- --x--- x-x-x- --x--- -xx--- ------ -xx--- -x----
------ --xx-- ------ -x-x-- xxxx-- x---x- -xx-x- ------ --x--- -x---- --x--- ------ --x--- ------ -xx--- x-----
------ ------ ------ ------ ------ ------ ------ ------ ------ ------ ------ ------ -x---- ------ ------ ------

-xxx-- -xx--- xxxx-- xxxxx- --xx-- xxxxx- -xxx-- xxxxx- -xxx-- -xxx-- -xx--- -xx--- ---x-- ------ -x---- -xxxx-
xx--x- xxx--- ---xx- ---xx- -xxx-- xx---- xx---- ---xx- xx--x- xx--x- -xx--- -xx--- --x--- -xxx-- --x--- ---xx-
xx--x- -xx--- -xxx-- --xx-- xx-x-- xxxx-- xxxx-- --xx-- -xxx-- -xxxx- ------ ------ -x---- ------ ---x-- --xx--
xx--x- -xx--- xx---- x--xx- xxxxx- ---xx- xx--x- -xx--- xx--x- ----x- -xx--- -xx--- --x--- -xxx-- --x--- ------
-xxx-- xxxx-- xxxxx- -xxx-- ---x-- xxxx-- -xxx-- xx---- -xxx-- -xxx-- -xx--- --x--- ---x-- ------ -x---- --xx--
------ ------ ------ ------ ------ ------ ------ ------ ------ ------ ------ -x---- ------ ------ ------ ------

-xxx-- -xxx-- xxxx-- -xxx-- xxxx-- xxxxx- xxxxx- -xxxx- xx--x- -xxxx- xxxxx- xx--x- xx---- xx-xx- xx--x- -xxx--
x-x-x- xx--x- xx--x- xx--x- xx--x- xx---- xx---- xx---- xx--x- --xx-- ---xx- xx-x-- xx---- xxxxx- xxx-x- xx--x-
x-xxx- xx--x- xxxx-- xx---- xx--x- xxxx-- xxxx-- xx-xx- xxxxx- --xx-- ---xx- xxx--- xx---- xxxxx- xxxxx- xx--x-
x----- xxxxx- xx--x- xx--x- xx--x- xx---- xx---- xx--x- xx--x- --xx-- xx-xx- xx-x-- xx---- x-x-x- xx-xx- xx--x-
-xxx-- xx--x- xxxx-- -xxx-- xxxx-- xxxxx- xx---- -xxxx- xx--x- -xxxx- -xxx-- xx--x- xxxxx- x---x- xx--x- -xxx--
------ ------ ------ ------ ------ ------ ------ ------ ------ ------ ------ ------ ------ ------ ------ ------

xxxx-- -xxx-- xxxx-- -xxxx- -xxxx- xx--x- xx--x- x---x- xx--x- -xx-x- xxxxx- -xx--- x----- -xx--- --x--- ------
xx--x- xx--x- xx--x- xxx--- --xx-- xx--x- xx--x- x-x-x- xx--x- -xx-x- --xx-- -x---- -x---- --x--- -x-x-- ------
xx--x- xx--x- xx--x- -xxx-- --xx-- xx--x- xx--x- xxxxx- -xxx-- -xxxx- -xx--- -x---- --x--- --x--- x---x- ------
xxxx-- xx--x- xxxx-- --xxx- --xx-- xx--x- -xxx-- xxxxx- xx--x- --xx-- xx---- -x---- ---x-- --x--- ------ ------
xx---- -xxx-- xx--x- xxxx-- --xx-- -xxx-- --x--- xx-xx- xx--x- --xx-- xxxxx- -xx--- ----x- -xx--- ------ -xxxx-
------ ----x- ------ ------ ------ ------ ------ ------ ------ ------ ------ ------ ------ ------ ------ ------

--x--- ------ xx---- ------ ---xx- ------ --xxx- ------ xx---- --xx-- ---xx- xx---- -xx--- ------ ------ ------
---x-- -xxxx- xxxx-- -xxxx- -xxxx- -xxx-- -xx--- -xxx-- xxxx-- ------ ------ xx--x- -xx--- xx-x-- xxxx-- -xxx--
------ x--xx- xx--x- xxx--- x--xx- xx-xx- xxxxx- x--xx- xx--x- -xxx-- ---xx- xxxx-- -xx--- xxxxx- xx--x- xx--x-
------ x--xx- xx--x- xxx--- x--xx- xxx--- -xx--- xxxxx- xx--x- --xx-- ---xx- xx--x- -xx--- x-x-x- xx--x- xx--x-
------ -xxxx- xxxx-- -xxxx- -xxxx- -xxx-- -xx--- ---xx- xx--x- -xxxx- x--xx- xx--x- --xxx- x-x-x- xx--x- -xxx--
------ ------ ------ ------ ------ ------ ------ -xxx-- ------ ------ -xxx-- ------ ------ ------ ------ ------

------ ------ ------ ------ -xx--- ------ ------ ------ ------ ------ ------ --xx-- --x--- -xx--- ------ ------
xxxx-- -xxxx- xxxx-- --xxx- xxxxx- x--xx- xx--x- x---x- xx-xx- x--xx- xxxxx- --x--- --x--- --x--- --x-x- ------
xx--x- x--xx- xx--x- -xx--- -xx--- x--xx- xx--x- x-x-x- -xxx-- x--xx- --xx-- -xx--- --x--- --xx-- -x-x-- ------
xx--x- x--xx- xx---- ---xx- -xx--- x--xx- xx-x-- xxxxx- -xxx-- -xxxx- -xx--- --x--- --x--- --x--- ------ ------
xxxx-- -xxxx- xx---- -xxx-- --xxx- -xxxx- xxx--- xx-xx- xx-xx- ---xx- xxxxx- --xx-- --x--- -xx--- ------ ------
xx---- ---xx- ------ ------ ------ ------ ------ ------ ------ -xxx-- ------ ------ ------ ------ ------ ------

------ ------ ------ ------ ------ ------ ------ ------ ------ ------ ------ ------ ------ ------ ------ ------
------ ------ ------ ------ ------ ------ ------ ------ ------ ------ ------ ------ ------ ------ ------ ------
------ ------ ------ ------ ------ ------ ------ ------ ------ ------ ------ ------ ------ ------ ------ ------
------ ------ ------ ------ ------ ------ ------ ------ ------ ------ ------ ------ ------ ------ ------ ------
------ ------ ------ ------ ------ ------ ------ ------ ------ ------ ------ ------ ------ ------ ------ ------
------ ------ ------ ------ ------ ------ ------ ------ ------ ------ ------ ------ ------ ------ ------ ------

------ ------ ------ ------ ------ ------ ------ ------ ------ ------ ------ ------ ------ ------ ------ ------
------ ------ ------ ------ ------ ------ ------ ------ ------ ------ ------ ------ ------ ------ ------ ------
------ ------ ------ ------ ------ ------ ------ ------ ------ ------ ------ ------ ------ ------ ------ ------
------ ------ ------ ------ ------ ------ ------ ------ ------ ------ ------ ------ ------ ------ ------ ------
------ ------ ------ ------ ------ ------ ------ ------ ------ ------ ------ ------ ------ ------ ------ ------
------ ------ ------ ------ ------ ------ ------ ------ ------ ------ ------ ------ ------ ------ ------ ------

------ ------ ------ ------ ------ ------ ------ ------ ------ ------ ------ ------ ------ ------ ------ ------
------ ------ ------ ------ ------ ------ ------ ------ ------ ------ ------ ------ ------ ------ ------ ------
------ ------ ------ ------ ------ ------ ------ ------ ------ ------ ------ ------ ------ ------ ------ ------
------ ------ ------ ------ ------ ------ ------ ------ ------ ------ ------ ------ ------ ------ ------ ------
------ ------ ------ ------ ------ ------ ------ ------ ------ ------ ------ ------ ------ ------ ------ ------
------ ------ ------ ------ ------ ------ ------ ------ ------ ------ ------ ------ ------ ------ ------ ------

------ ------ ------ ------ ------ ------ ------ ------ ------ ------ ------ ------ ------ ------ ------ ------
------ ------ ------ ------ ------ ------ ------ ------ ------ ------ ------ ------ ------ ------ ------ ------
------ ------ ------ ------ ------ ------ ------ ------ ------ ------ ------ ------ ------ ------ ------ ------
------ ------ ------ ------ ------ ------ ------ ------ ------ ------ ------ ------ ------ ------ ------ ------
------ ------ ------ ------ ------ ------ ------ ------ ------ ------ ------ ------ ------ ------ ------ ------
------ ------ ------ ------ ------ ------ ------ ------ ------ ------ ------ ------ ------ ------ ------ ------

------ ------ ------ ------ ------ ------ ------ ------ ------ ------ ------ ------ ------ ------ ------ ------
------ ------ ------ ------ ------ ------ ------ ------ ------ ------ ------ ------ ------ ------ ------ ------
------ ------ ------ ------ ------ ------ ------ ------ ------ ------ ------ ------ ------ ------ ------ ------
------ ------ ------ ------ ------ ------ ------ ------ ------ ------ ------ ------ ------ ------ ------ ------
------ ------ ------ ------ ------ ------ ------ ------ ------ ------ ------ ------ ------ ------ ------ ------
------ ------ ------ ------ ------ ------ ------ ------ ------ ------ ------ ------ ------ ------ ------ ------

------ ------ ------ ------ ------ ------ ------ ------ ------ ------ ------ ------ ------ ------ ------ ------
------ ------ ------ ------ ------ ------ ------ ------ ------ ------ ------ ------ ------ ------ ------ ------
------ ------ ------ ------ ------ ------ ------ ------ ------ ------ ------ ------ ------ ------ ------ ------
------ ------ ------ ------ ------ ------ ------ ------ ------ ------ ------ ------ ------ ------ ------ ------
------ ------ ------ ------ ------ ------ ------ ------ ------ ------ ------ ------ ------ ------ ------ ------
------ ------ ------ ------ ------ ------ ------ ------ ------ ------ ------ ------ ------ ------ ------ ------

------ ------ ------ ------ ------ ------ ------ ------ ------ ------ ------ ------ ------ ------ ------ ------
------ ------ ------ ------ ------ ------ ------ ------ ------ ------ ------ ------ ------ ------ ------ ------
------ ------ ------ ------ ------ ------ ------ ------ ------ ------ ------ ------ ------ ------ ------ ------
------ ------ ------ ------ ------ ------ ------ ------ ------ ------ ------ ------ ------ ------ ------ ------
------ ------ ------ ------ ------ ------ ------ ------ ------ ------ ------ ------ ------ ------ ------ ------
------ ------ ------ ------ ------ ------ ------ ------ ------ ------ ------ ------ ------ ------ ------ ------

------ ------ ------ ------ ------ ------ ------ ------ ------ ------ ------ ------ ------ ------ ------ ------
------ ------ ------ ------ ------ ------ ------ ------ ------ ------ ------ ------ ------ ------ ------ ------
------ ------ ------ ------ ------ ------ ------ ------ ------ ------ ------ ------ ------ ------ ------ ------
------ ------ ------ ------ ------ ------ ------ ------ ------ ------ ------ ------ ------ ------ ------ ------
------ ------ ------ ------ ------ ------ ------ ------ ------ ------ ------ ------ ------ ------ ------ ------
------ ------ ------ ------ ------ ------ ------ ------ ------ ------ ------ ------ ------ ------ ------ ------

------ ------ ------ ------ ------ ------ ------ ------ ------ ------ ------ ------ ------ ------ ------ ------
------ ------ ------ ------ ------ ------ ------ ------ ------ ------ ------ ------ ------ ------ ------ ------
------ ------ ------ ------ ------ ------ ------ ------ ------ ------ ------ ------ ------ ------ ------ ------
------ ------ ------ ------ ------ ------ ------ ------ ------ ------ ------ ------ ------ ------ ------ ------
------ ------ ------ ------ ------ ------ ------ ------ ------ ------ ------ ------ ------ ------ ------ ------
------ ------ ------ ------ ------ ------ ------ ------ ------ ------ ------ ------ ------ ------ ------ ------

------ ------ ------ ------ ------ ------ ------ ------ ------ ------ ------ ------ ------ ------ ------ ------
------ ------ ------ ------ ------ ------ ------ ------ ------ ------ ------ ------ ------ ------ ------ ------
------ ------ ------ ------ ------ ------ ------ ------ ------ ------ ------ ------ ------ ------ ------ ------
------ ------ ------ ------ ------ ------ ------ ------ ------ ------ ------ ------ ------ ------ ------ ------
------ ------ ------ ------ ------ ------ ------ ------ ------ ------ ------ ------ ------ ------ ------ ------
------ ------ ------ ------ ------ ------ ------ ------ ------ ------ ------ ------ ------ ------ ------ ------